<?xml version="1.0" encoding="utf-8"?>
<!-- Generator: Adobe Illustrator 19.1.0, SVG Export Plug-In . SVG Version: 6.00 Build 0)  -->
<svg version="1.1" id="Capa_1" xmlns:sketch="http://www.bohemiancoding.com/sketch/ns"
	 xmlns="http://www.w3.org/2000/svg" xmlns:xlink="http://www.w3.org/1999/xlink" x="0px" y="0px" viewBox="-93.9 379 35 35"
	 style="enable-background:new -93.9 379 35 35;" xml:space="preserve">
<style type="text/css">
	.st0{fill:#424242;}
	.st1{fill:#ECC68B;}
	.st2{fill:#4B4F4F;}
	.st3{fill:#F1D326;}
	.st4{fill:#D9AE24;}
	.st5{fill:#F06292;}
	.st6{fill:#EC407A;}
	.st7{fill:#FFFFFF;}
</style>
<g>
	<g>
		<path class="st0" d="M-64.1,386.1c0.6-0.9,0.4-2-0.5-2.6l-4-2.8c0,0-1.1-0.8-1.1-0.8c-0.9-0.6-2.1-0.4-2.6,0.5
			c-0.3,0.5,0,0.5,0.1,1.1l-0.6-0.4l-0.2,0.3l0,0l-15.3,22.1l0.2,0.2c-0.1,0-0.1,0-0.2,0l-0.5,9.8l3.8-1.9l0,0l4.9-2.4l0.1,0
			l14.4-20.8l0,0l1.1-1.6l-0.6-0.4C-64.7,386.3-64.5,386.6-64.1,386.1z"/>
		<path class="st0" d="M-89.2,413.9C-89.2,413.9-89.2,413.9-89.2,413.9c-0.3-0.2-0.4-0.4-0.3-0.6l0.5-9.7c0,0,0-0.1,0-0.1
			c0-0.2,0-0.3,0.1-0.4l15.6-22.4c0.1-0.1,0.2-0.2,0.3-0.2c0-0.1,0.1-0.3,0.2-0.4c0.8-1.1,2.3-1.4,3.5-0.6l5.2,3.5
			c0.6,0.4,0.9,0.9,1,1.6c0.1,0.6,0,1.3-0.4,1.8c0,0,0,0,0,0c-0.1,0.2-0.3,0.3-0.4,0.4c0,0.1,0,0.2-0.1,0.3l-15.6,22.4
			c-0.1,0.2-0.3,0.3-0.5,0.2l-8.4,4.2C-88.8,414-89,414-89.2,413.9z M-87.9,404l-0.4,8.4l7.8-3.9c0,0,0,0,0,0l15.1-21.7l-0.1-0.1
			c-0.2-0.1-0.3-0.4-0.2-0.6c0.1-0.2,0.3-0.4,0.5-0.4c0.3,0,0.5,0,0.6,0c0,0,0.1,0,0.1,0l0,0c0.2-0.3,0.3-0.6,0.2-1
			c-0.1-0.3-0.3-0.7-0.6-0.9l-5.2-3.5c-0.6-0.4-1.4-0.3-1.8,0.3c0,0,0,0,0,0c0.1,0.2,0.2,0.3,0.2,0.5c0.1,0.2,0,0.5-0.2,0.6
			c-0.2,0.1-0.5,0.2-0.7,0l-0.1-0.1l-15,21.6c0.1,0.1,0.1,0.3,0,0.4C-87.8,403.9-87.8,404-87.9,404z"/>
	</g>
	<g>
		<path class="st1" d="M-87.8,403.6l-0.5,9.2l8.1-4.1C-80.1,408.7-81.5,403.6-87.8,403.6z"/>
		<path class="st2" d="M-88.1,409.3l-0.2,3.6l3.5-1.8c-0.7-0.7-1.5-1.2-2.4-1.6C-87.5,409.4-87.8,409.3-88.1,409.3z"/>
		
			<rect x="-81.5" y="383" transform="matrix(0.8235 0.5673 -0.5673 0.8235 210.9222 113.3921)" class="st3" width="9.4" height="25.4"/>
		
			<rect x="-81.1" y="381.7" transform="matrix(0.8235 0.5673 -0.5673 0.8235 209.8629 114.2245)" class="st4" width="4.8" height="25.4"/>
		<path class="st5" d="M-64.7,384.3l-5.7-3.9c-0.5-0.4-1.3-0.2-1.7,0.3l-0.6,0.9c-0.4,0.5-0.2,1.3,0.3,1.7l5.7,3.9
			c0.5,0.4,1.3,0.2,1.7-0.3l0.6-0.9C-64,385.4-64.2,384.7-64.7,384.3z"/>
		<path class="st6" d="M-68.4,381.7l-2-1.4c-0.5-0.4-1.3-0.2-1.7,0.3l-0.6,0.9c-0.4,0.5-0.2,1.3,0.3,1.7l2,1.4
			c0.5,0.4,1.3,0.2,1.7-0.3l0.6-0.9C-67.8,382.8-67.9,382.1-68.4,381.7z"/>
		
			<rect x="-74.6" y="384.7" transform="matrix(0.8235 0.5673 -0.5673 0.8235 206.4573 107.7095)" class="st7" width="9.4" height="1.9"/>
	</g>
</g>
</svg>
